…
You can aquire the same information but for only goalies with
`get_top10_player_stats()`.

You can get all the games for a season with `get_games()`.

    get_games(season = "2018")

    ## # A tibble: 364 x 17
    ##    away_team_code away_team_result game_center game_id game_type game_uuid
    ##    <chr>                     <int> <lgl>         <int> <chr>     <chr>    
    ##  1 BIF                           0 FALSE          8597 Regular … qUv-ZF3X…
    ##  2 LHC                           0 FALSE          8595 Regular … qUv-ZF3X…
    ##  3 OHK                           0 FALSE          8596 Regular … qUv-ZF3A…
    ##  4 DIF                           0 FALSE          8594 Regular … qUv-ZF2W…
    ##  5 TIK                           0 FALSE          8592 Regular … qUv-ZF2D…
    ##  6 SAIK                          0 FALSE          8593 Regular … qUv-ZF24…
    ##  7 VLH                           0 FALSE          8591 Regular … qUv-ZF1o…
    ##  8 HV71                          0 FALSE          8589 Regular … qUv-ZF1A…
    ##  9 RBK                           0 FALSE          8590 Regular … qUv-ZF1A…
    ## 10 LHF                           0 FALSE          8587 Regular … qUv-ZF0O…
    ## # … with 354 more rows, and 11 more variables:
    ## #   highlights_coverage_enabled <lgl>, home_team_code <chr>,
    ## #   home_team_result <int>, live_coverage_enabled <lgl>, overtime <lgl>,
    ## #   penalty_shots <lgl>, played <lgl>, season <chr>, series <chr>,
    ## #   date <date>, start_time <S3: times>
…
